{
    "brain_damage": [
        "@pick(semicolon)IM A PONY NEEEEEEIIIIIIIIIGH",
        "without oxigen blob don't evoluate?",
        "@pick(semicolon)CAPTAINS A COMDOM",
        "can u give me @pick(mutations)?",
        "THe saiyans screwed",
        "Bi is THE BEST OF BOTH WORLDS>",
        "@pick(semicolon)I WANNA PET TEH monkeys",
        "SOTP IT",
        "shiggey diggey!!",
        "@pick(semicolon)A PIRATE APPEAR",
        "FUS RO DAH",
        "stat me",
        "my face!!!",
        "roll it easy!",
        "waaaaaagh!!!",
        "FOR TEH EMPRAH",
        "dem dwarfs man, dem dwarfs",
        "SPESS MAHREENS",
        "luv can bloooom",
        "PACKETS!!!",
        "port ba@pick(y_replacements) med!!!!",
        "REVIRT GON CHEM!!!!!!!!",
        "youed call her a toeugh bithc",
        "ur a fucking autist!",
        "@pick(semicolon)HELP SHITECIRTY MURDERIN  MEE!!!",
        "hwat dose tha @pick(random_gibberish) mean?????",
        "@pick(semicolon)CALL TEH SHUTTLE!!!!!",
        "@pick(semicolon)AI laW 22 Open door",
        "@pick(semicolon)this SI mY stATIon......",
        "who the HELL do u thenk u r?!!!!",
        "geT THE FUCK OUTTTT",
        "HUGBOX!!",
        "@pick(semicolon)CRASHING THIS STTAYTION WITH NIO SURVIVROS",
        "HELP SINGULARITY!!",
        "TURBIN IS BEST ENGINE!!",
        "@pick(semicolon)Tajaran has warrrres, if you have coin~",
        "@pick(semicolon)I'VE GOT BALLS OF STEEEEEEL",
        "NO I'M ONNA KILL YOU MOTHERFUCKER OLD STYLE",
        "i will snatch erry motherfucker birthday",
        "you just did the world a little bit more sad place for someone...",
		"CEMISTRY SUCKS!!!!!!!!",
		"youed call her a toeugh bithc",
		"git gud!!",
		"CHEMIT GIB HALNOM PLS",
		"PLASMA iS MEANT TO BE FREE!!",
		"SEC IS A REV, LYNCH!!",
		"NO PRED CAN EVER CATCH ME!!",
		"SCIENCE GIB SHINK RAY PLS",
		"KILL PUNPUN FOR FUN!",
		"i sign up as @pick(roles) to only ORDER not DO!",
		"CRAGO ORDER @pick(cargo) PLEASE!",
		"You and me. Dorms.",
		"i want to digest you!!!",
		"NOM!!",
		"LYNCH RObOTIKS NOT GIBING ME MECH!!",
		"GWURGLE!!",
		"balid saled!",
		"LINCH VIRO",
		"VIRO GIB SuPR VIrUS!!",
		";taitor trie to make meh malk/?!1!!",
		";ENGIE TATOR HE SET UP SINGULO!!!11",
		"I LOVE NAGAS!!",
		"SINDYIE ON SAtIONS GiB gUNS PLISE",
		"CcLOWN IV SlIPPING MI, SEC TO BAR!!",
		"dude really?",
		"can i be a wizard?",
		"aI state them!!",
		"SINGULO eNGINE 2 DANGER, SOLARS PLS!",
		"help blob!!",
		"im not a furry, but.",
		"FOURTEEN CENTIMETERS SOFT!!!",
        "@pick(semicolon)N-NYAAAAAA~",
        "DON'T EVER TOUCH ME!!",
        "@pick(semicolon)GIVE ME FREE ROBUX PLEASE JUST ENOUGH FOR SHIRT AND PANTS",
		"@pick(semicolon) DOOR STUCK!!",
		";AI LAW 3 OPEN THIS!!",
		"@pick(semicolon)RESEARCH NANITES FIRST!",
		"@pick(semicolon)im SICK of these humans ruining Frontier Station!!",
		"@pick(semicolon)ai ROUGE",
		"@pick(semicolon)CHEMISST MAKE HEXACROCON OR DEMOTE!!",
		"@pick(semicolon)drone 765 law 2 state LAWS NOW",
		"@pick(semicolon)SM ROGUE",
		"@pick(semicolon)IPCS STATE LAWS NOW",
		"@pick(semicolon)lING DORMS i hear Suking noises!!!",
		"@pick(semicolon)@pick(roles) tator they have @pick(mutations)!!",
		";,g absorbing @pick(roles)",
		"@pick(semicolon)LIZZARRD SPEAKIGN IN EVIL BULL LANGUAGE SCI!!",
		"@pick(semicolon)FUCK FUCK FUCK YOU",
		"@pick(semicolon)He turns himself into a pickle, funniest shit i have ever seen",
		"@pick(semicolon)HELP SHOTS FIRED DORMS!1!",
		"@pick(semicolon)*nya",
		"@pick(semicolon)*awoo",
		"@pick(semicolon)*merp",
		"@pick(semicolon)*weh",
		"@pick(semicolon)I'm a fucking factory worker, i don't care about the quality of my work i just want to get shit done!",
		"@pick(semicolon)What the fuck is a blueshield again?!1!",
		"@pick(semicolon)I WANTED ORANGE, IT GAVE ME LEMON-LIME!!",
		"@pick(semicolon)Jayson Gibson. You have an actual, literal fucking dent in your skull!!",
		"@pick(semicolon)Are you my mommy?",
		"@pick(semicolon)I don't believe in Death Squads!!",
		"@pick(semicolon)My dad went out for cigarettes, He hasn't come back yet...",
		"@pick(semicolon)fucking liggers!!",
		"@pick(semicolon)fucking nyaggers!!",
		"@pick(semicolon)DUHHH CIRNGE!!!! DUHHH BRINGE!!???!!1 CRINGE!!!!! IS THAT ALL YOU SHITPOSTING FUCKS CAN SAY!!???",
		"@pick(semicolon)Mate mate you come to Birmingham mate I'll fuckin bite your face off and shove it up your asshole you little dickhead!",
		"@pick(semicolon)My balls hurt and i don't know why...",
		"@pick(semicolon)Rinwrold is a bad gaem!!1!",
		"@pick(semicolon)Simpul as",
		"@pick(semicolon)AKSHUALLY!",
		"@pick(semicolon)Nyanites~!",
		"@pick(semicolon)wuh if trayters but dey fite eech udder",
		"@pick(semicolon)iM tHe mOSt cHAd aNd DoM pErsON HerE!!11!",
		"@pick(semicolon)I guess 10 feet is a realistic height.",
		"@pick(semicolon)I used the shotgun. You know why? Cause the shot gun doesn't miss!!",
		"@pick(semicolon)Does it matter if he's a lizzard if he's cute?1!?",
		"@pick(semicolon)Dangers aside, if i were to inhale a tank of helium i could jump pretty damn high!1!!",
		"@pick(semicolon)Don't let your memes be dreams!!",
		"@pick(semicolon)i'll make a null rod out of vox skins!!1!!",
		"@pick(semicolon)LEGIT THOUgh DO YOU KNOW HOW DiFFICULT IT IS TO KEEP HORNY FURRIES FROM SENDING DiKC PICS EVERY 5 MINUETS?!!",
		"@pick(semicolon)DONT SHOOT I'M WITH THE SCIENCE TEAM!!",
		"@pick(semicolon)STAHP!!",
		"@pick(semicolon)HERETIIIIC!!",
		"@pick(semicolon)BLOOOOOD!!",
		"@pick(semicolon)sukc my fucc you harloet!",
		"@pick(semicolon)REMOVE THE COMMENT!11!!",
		"@pick(semicolon)My balls finally feel full, again."
    ],

    "mutations": [
        "telikesis",
        "halk",
        "eppilapse",
        "kamelien",
        "eksrey",
        "glowey skin",
        "fungal tb",
        "stun gloves"
    ],

    "george": [
        "joerge",
        "george",
        "gorge",
        "gdoruge"
    ],

    "mellens": [
        "mellens",
        "melons",
        "mwrlins"
    ],

    "random_gibberish": [
        "g",
        "squid",
        "r",
        "carbon dioxide"
    ],

    "y_replacements": [
        "y",
        "i",
        "e"
    ],

    "servers": [
        "bager",
        "sybl",
        "mrs sybil",
        "mr basil",
		"sisadel",
		"dullus",
		"colon marhens",
		"haylo",
		"EEGEE",
        "mr terry",
        "berry"
    ],

    "create_verbs": [
        "spawn",
        "MAke me",
        "creat"
    ],

    "create_nouns": [
        "zenomorfs",
        "ayleins",
        "treaitors",
        "sheadow lings",
        "abdoocters",
        "revinent"
    ],
	
    "bug": [
        "",
        "IS TIS A BUG??",
        "SI IST A BUGG/",
        "BUG!!!",
		"HUE, FEATURE!!"
    ],
	
    "semicolon": [
        "",
        ";",
        ".h"
    ],

    "god_foe": [
        "MORTALS",
        "HERETICS",
        "INSECTS",
	"UNBELIEVERS",
	"BLASPHEMERS",
	"PARASITES",
	"WEAKLINGS",
	"PEASANTS"
    ],

    "god_aggressive": [
        "BEGONE, @pick(god_foe)!",
        "DIE, @pick(god_foe)!",
        "BLEED, @pick(god_foe)!",
	"BURN, @pick(god_foe)!",
	"ALL WILL FALL BEFORE ME!",
	"ENDLESS SUFFERING AWAITS YOU, @pick(god_foe).",
	"DEATH TO @pick(god_foe)!"
    ],

    "god_neutral": [
        "STOP",
	"HALT.",
        "BE SILENT.",
        "QUIET",
	"SEE THE TRUTH BEFORE YOU, MORTALS.",
	"MORTALS, SAY YOUR NAME",
	"BEGONE, MORTALS.",
	"BE HEALED, MORTALS. I AM FEELING MERCIFUL.",
	"DANCE FOR ME, LITTLE MORTALS.",
	"YOU. STOP.",
	"REST, MORTALS, TOMORROW IS A LONG DAY.",
	"YOU MORTALS MAKE ME SICK.",
	"HONK..."
    ],

    "god_unstun": [
	"GET UP. I HAVE NO TIME TO LOSE.",
	"GET UP, PRIEST.",
	"GET UP."
    ],

    "god_heal": [
	"YOU WILL LIVE TO SEE ANOTHER DAY.",
	"YOU SHALL SURVIVE THIS, MY PRIEST.",
	"BE HEALED, PRIEST.",
	"YOUR LIFE IS IMPORTANT. KEEP IT."
    ],

	"roles": [
	"heds",
	"ceptin",
	"hop",
	"arrdee",
	"sek"
	],
	
	"cargo": [
	"GUNS",
	"HATS",
	"PIZEH",
	"MEMES",
	"GLOWY CYSTAL"
	],
	
	"s_roles": [
	"ert",
	"shadowlig",
	"ninja",
	"admen",
	"mantor",
	"bluh daymon",
	"wizzerd"
	]
}
